\relax 
\@writefile{toc}{\contentsline {section}{\numberline {1}Construction of Tetris Model}{2}}
\newlabel{TeGrow}{{1}{2}}
\@writefile{toc}{\contentsline {section}{\numberline {2}Conjectures for Tetris Model}{2}}
\@writefile{toc}{\contentsline {section}{\numberline {3}}{2}}
